<?xml version="1.0" encoding="UTF-8"?>
<!DOCTYPE svg PUBLIC "-//W3C//DTD SVG 1.1//EN" "http://www.w3.org/Graphics/SVG/1.1/DTD/svg11.dtd">
<!-- Creator: CorelDRAW X7 -->
<svg xmlns="http://www.w3.org/2000/svg" xml:space="preserve" width="30px" height="30px" version="1.1" style="shape-rendering:geometricPrecision; text-rendering:geometricPrecision; image-rendering:optimizeQuality; fill-rule:evenodd; clip-rule:evenodd"
viewBox="0 0 870 870"
 xmlns:xlink="http://www.w3.org/1999/xlink">
 <defs>
  <style type="text/css">
   <![CDATA[
    .fil1 {fill:#1760AD}
    .fil0 {fill:#1760AD;fill-opacity:0.501961}
   ]]>
  </style>
 </defs>
 <g id="Слой_x0020_1">
  <metadata id="CorelCorpID_0Corel-Layer"/>
  <path class="fil0" d="M0 435c0,240 195,435 435,435 240,0 435,-195 435,-435 0,-240 -195,-435 -435,-435 -240,0 -435,195 -435,435zm835 0c0,220 -180,400 -400,400 -221,0 -400,-180 -400,-400 0,-221 179,-400 400,-400 220,0 400,179 400,400z"/>
  <path class="fil1" d="M290 472c-3,3 -5,8 -5,12 0,5 2,9 5,13 7,6 18,6 25,0l120 -120 119 120c7,6 18,6 25,0 7,-7 7,-18 0,-25l-132 -132c-7,-7 -18,-7 -25,0l-132 132z"/>
 </g>
</svg>
