<?xml version="1.0" encoding="UTF-8"?>
<!DOCTYPE svg PUBLIC "-//W3C//DTD SVG 1.1//EN" "http://www.w3.org/Graphics/SVG/1.1/DTD/svg11.dtd">
<!-- Creator: CorelDRAW X7 -->
<svg xmlns="http://www.w3.org/2000/svg" xml:space="preserve" width="54px" height="50px" version="1.1" style="shape-rendering:geometricPrecision; text-rendering:geometricPrecision; image-rendering:optimizeQuality; fill-rule:evenodd; clip-rule:evenodd"
viewBox="0 0 3073 2844"
 xmlns:xlink="http://www.w3.org/1999/xlink">
 <defs>
  <style type="text/css">
   <![CDATA[
    .fil0 {fill:#FF6600}
   ]]>
  </style>
 </defs>
 <g id="Layer-239">
  <metadata id="CorelCorpID_0Corel-Layer"/>
  <g id="_1590014235872">
   <g>
    <g>
     <path class="fil0" d="M1289 2303c-149,0 -271,121 -271,270 0,149 122,271 271,271 149,0 270,-122 270,-271 0,-149 -121,-270 -270,-270zm0 390c-66,0 -120,-54 -120,-120 0,-65 54,-119 120,-119 65,0 119,54 119,119 0,66 -54,120 -119,120z"/>
    </g>
   </g>
   <g>
    <g>
     <path class="fil0" d="M2237 2303c-149,0 -271,121 -271,270 0,149 122,271 271,271 149,0 270,-122 270,-271 0,-149 -121,-270 -270,-270zm0 390c-66,0 -120,-54 -120,-120 0,-65 54,-119 120,-119 65,0 119,54 119,119 0,66 -54,120 -119,120z"/>
    </g>
   </g>
   <g>
    <g>
     <path class="fil0" d="M2303 880l-1081 0c-42,0 -76,34 -76,76 0,41 34,75 76,75l1081 0c42,0 76,-34 76,-75 0,-42 -34,-76 -76,-76z"/>
    </g>
   </g>
   <g>
    <g>
     <path class="fil0" d="M2244 1272l-963 0c-42,0 -76,34 -76,76 0,41 34,75 76,75l963 0c42,0 76,-34 76,-75 0,-42 -34,-76 -76,-76z"/>
    </g>
   </g>
   <g>
    <g>
     <path class="fil0" d="M3039 544c-29,-35 -71,-56 -117,-56l-2350 0 -48 -230c-10,-48 -42,-88 -87,-108l-331 -144c-39,-16 -83,1 -100,39 -16,39 1,83 39,100l332 143 365 1773c14,69 76,120 148,120l1807 0c42,0 76,-34 76,-75 0,-42 -34,-76 -76,-76l-1807 0 -45 -215 1866 0c71,0 134,-51 148,-121l211 -1024c9,-45 -2,-91 -31,-126zm-328 1120l-1897 0 -211 -1025 2319 0 -211 1025z"/>
    </g>
   </g>
  </g>
 </g>
</svg>
