<?xml version="1.0" encoding="UTF-8"?>
<!DOCTYPE svg PUBLIC "-//W3C//DTD SVG 1.1//EN" "http://www.w3.org/Graphics/SVG/1.1/DTD/svg11.dtd">
<!-- Creator: CorelDRAW X7 -->
<svg xmlns="http://www.w3.org/2000/svg" xml:space="preserve" width="52px" height="43px" version="1.1" style="shape-rendering:geometricPrecision; text-rendering:geometricPrecision; image-rendering:optimizeQuality; fill-rule:evenodd; clip-rule:evenodd"
viewBox="0 0 2777 2316"
 xmlns:xlink="http://www.w3.org/1999/xlink">
 <defs>
  <style type="text/css">
   <![CDATA[
    .str0 {stroke:#4781C5;stroke-width:107.154}
    .fil0 {fill:none}
    .fil1 {fill:#4781C5}
   ]]>
  </style>
 </defs>
 <g id="Слой_x0020_1">
  <metadata id="CorelCorpID_0Corel-Layer"/>
  <rect class="fil0 str0" x="54" y="54" width="2669" height="2209" rx="96" ry="536"/>
  <path class="fil1" d="M1664 1158l0 2c0,14 -6,29 -17,40l-384 384 0 -3c-108,21 -87,-83 0,-159l264 -264 -264 -263c-87,-76 -108,-180 0,-159l0 -3 384 384c11,11 17,25 17,39l0 2z"/>
 </g>
</svg>
