<?xml version="1.0" encoding="UTF-8"?>
<!DOCTYPE svg PUBLIC "-//W3C//DTD SVG 1.1//EN" "http://www.w3.org/Graphics/SVG/1.1/DTD/svg11.dtd">
<!-- Creator: CorelDRAW X7 -->
<svg xmlns="http://www.w3.org/2000/svg" xml:space="preserve" width="89px" height="89px" version="1.1" style="shape-rendering:geometricPrecision; text-rendering:geometricPrecision; image-rendering:optimizeQuality; fill-rule:evenodd; clip-rule:evenodd"
viewBox="0 0 89079 89082"
 xmlns:xlink="http://www.w3.org/1999/xlink">
 <defs>
  <style type="text/css">
   <![CDATA[
    .str0 {stroke:#1C63B8;stroke-width:2991.09}
    .fil0 {fill:none}
   ]]>
  </style>
 </defs>
 <g id="Слой_x0020_1">
  <metadata id="CorelCorpID_0Corel-Layer"/>
  <g id="_1590295890784">
   <g>
    <path class="fil0 str0" d="M44541 1496c-23765,0 -43045,19257 -43045,43023 0,23790 19280,43067 43045,43067 23778,0 43042,-19277 43042,-43067 0,-23766 -19264,-43023 -43042,-43023zm3068 66974c-1000,891 -2158,1337 -3472,1337 -1357,0 -2542,-439 -3553,-1319 -1013,-878 -1520,-2108 -1520,-3688 0,-1402 491,-2582 1469,-3537 979,-957 2180,-1434 3604,-1434 1402,0 2582,477 3540,1434 956,955 1435,2135 1435,3537 -1,1558 -502,2781 -1503,3670zm12465 -30904c-768,1424 -1680,2652 -2738,3688 -1055,1035 -2952,2776 -5691,5223 -755,690 -1363,1296 -1818,1818 -456,523 -796,1001 -1018,1436 -223,433 -395,868 -517,1303 -121,432 -305,1195 -552,2285 -422,2315 -1745,3472 -3970,3472 -1157,0 -2129,-378 -2922,-1135 -789,-757 -1183,-1880 -1183,-3370 0,-1869 290,-3487 868,-4857 575,-1369 1346,-2570 2301,-3605 958,-1036 2248,-2264 3874,-3689 1424,-1246 2452,-2185 3086,-2819 635,-635 1169,-1342 1601,-2119 436,-780 650,-1625 650,-2536 0,-1782 -659,-3281 -1985,-4505 -1324,-1223 -3032,-1836 -5124,-1836 -2448,0 -4249,617 -5407,1852 -1157,1235 -2134,3052 -2936,5456 -759,2515 -2194,3772 -4306,3772 -1246,0 -2297,-438 -3155,-1317 -855,-879 -1283,-1830 -1283,-2853 0,-2114 679,-4256 2035,-6426 1358,-2170 3338,-3966 5942,-5389 2602,-1425 5642,-2137 9110,-2137 3227,0 6074,596 8543,1787 2469,1189 4379,2808 5726,4856 1344,2046 2019,4271 2019,6675 2,1888 -382,3546 -1150,4970z"/>
   </g>
   <g>
   </g>
   <g>
   </g>
   <g>
   </g>
   <g>
   </g>
   <g>
   </g>
   <g>
   </g>
   <g>
   </g>
   <g>
   </g>
   <g>
   </g>
   <g>
   </g>
   <g>
   </g>
   <g>
   </g>
   <g>
   </g>
   <g>
   </g>
   <g>
   </g>
  </g>
 </g>
</svg>
