<?xml version="1.0" encoding="UTF-8"?>
<!DOCTYPE svg PUBLIC "-//W3C//DTD SVG 1.1//EN" "http://www.w3.org/Graphics/SVG/1.1/DTD/svg11.dtd">
<!-- Creator: CorelDRAW X7 -->
<svg xmlns="http://www.w3.org/2000/svg" xml:space="preserve" width="56px" height="35px" version="1.1" style="shape-rendering:geometricPrecision; text-rendering:geometricPrecision; image-rendering:optimizeQuality; fill-rule:evenodd; clip-rule:evenodd"
viewBox="0 0 3000 1874"
 xmlns:xlink="http://www.w3.org/1999/xlink">
 <defs>
  <style type="text/css">
   <![CDATA[
    .fil0 {fill:#4781C5}
   ]]>
  </style>
 </defs>
 <g id="Слой_x0020_1">
  <metadata id="CorelCorpID_0Corel-Layer"/>
  <g id="_1590286599616">
   <g>
    <g>
     <path class="fil0" d="M749 1456c-25,0 -44,20 -44,44 0,54 -44,97 -97,97 -54,0 -97,-43 -97,-97 0,-53 43,-97 97,-97 24,0 44,-19 44,-44 0,-24 -20,-44 -44,-44 -102,0 -185,83 -185,185 0,102 83,185 185,185 102,0 185,-83 185,-185 0,-24 -20,-44 -44,-44z"/>
    </g>
   </g>
   <g>
    <g>
     <path class="fil0" d="M2534 1456c-25,0 -44,20 -44,44 0,54 -44,97 -97,97 -54,0 -97,-43 -97,-97 0,-53 43,-97 97,-97 24,0 44,-19 44,-44 0,-24 -20,-44 -44,-44 -102,0 -185,83 -185,185 0,102 83,185 185,185 102,0 185,-83 185,-185 0,-24 -20,-44 -44,-44z"/>
    </g>
   </g>
   <g>
    <g>
     <path class="fil0" d="M3000 766c0,-62 -41,-116 -101,-131 -113,-29 -342,-63 -805,-70l-242 -269c-29,-32 -63,-57 -101,-75 18,-24 28,-52 28,-83 0,-76 -62,-138 -138,-138l-892 0c-76,0 -138,62 -138,138 0,30 9,58 26,81 -29,17 -55,40 -74,68l-194 277 -179 0c-70,0 -131,49 -141,115 -6,38 4,77 28,108 -47,33 -77,88 -77,149l0 249c0,95 57,180 146,215l94 38c-3,20 -5,41 -5,62 0,115 52,218 134,286l-90 0c-24,0 -44,20 -44,44 0,24 20,44 44,44l658 0c24,0 43,-20 43,-44 0,-24 -19,-44 -43,-44l-91 0c82,-68 134,-171 134,-286 0,-1 0,-2 0,-3l1040 0c0,1 0,2 0,3 0,115 52,218 134,286l-90 0c-24,0 -44,20 -44,44 0,24 20,44 44,44l658 0c24,0 44,-20 44,-44 0,-24 -20,-44 -44,-44l-90 0c81,-68 134,-171 134,-286 0,-18 -2,-35 -4,-52l130 -29c64,-15 108,-70 108,-135l0 -291c0,-47 -18,-90 -47,-123 30,-26 47,-64 47,-104zm-1115 -302l90 100c-17,0 -34,0 -52,0l-520 0 0 -100 482 0zm-1136 -376l892 0c28,0 50,22 50,50 0,27 -22,50 -50,50l-31 0 -858 0 -3 0c-28,0 -50,-23 -50,-50 0,-28 22,-50 50,-50zm-114 249c26,-38 71,-61 117,-61l858 0c67,0 131,29 176,79l20 21 -911 0c-48,0 -92,24 -117,65l-77 123 -225 0 159 -227zm680 127l0 100 -511 0 48 -77c9,-15 25,-23 43,-23l420 0zm-1227 472c0,-53 43,-97 97,-97l117 0 -36 73c-9,17 -26,27 -45,27l-133 0 0 -3zm520 849c-157,0 -285,-128 -285,-285 0,-157 128,-285 285,-285 157,0 285,128 285,285 0,157 -128,285 -285,285zm1785 0c-157,0 -285,-128 -285,-285 0,-157 128,-285 285,-285 157,0 285,128 285,285 0,157 -128,285 -285,285zm502 -982c-7,6 -20,14 -39,10 -1,0 -1,0 -2,-1 0,0 0,0 0,0 0,0 -1,0 -1,0 -100,-21 -239,-37 -411,-47 -24,-1 -45,17 -46,41 -2,25 17,45 41,47 30,2 57,3 83,5l76 127c33,55 94,89 158,89l159 0 0 210c0,24 -17,44 -40,49l-134 30c-55,-138 -189,-236 -346,-236 -174,0 -321,121 -362,282l-1062 0c-40,-161 -187,-282 -361,-282 -154,0 -286,94 -343,226l-87 -34c-55,-22 -90,-75 -90,-134l0 -158 133 0c52,0 100,-29 123,-76l56 -112 1523 0c117,0 227,2 327,5 25,1 45,-18 46,-42 1,-24 -18,-45 -43,-45 -101,-4 -212,-5 -330,-5l-1738 0c-15,0 -29,-7 -38,-18 -10,-11 -14,-26 -11,-41 3,-23 27,-41 54,-41l1733 0c600,0 855,42 954,68 21,5 36,24 36,46 0,15 -7,28 -18,37zm17 184l-158 0c-33,0 -65,-19 -83,-48l-42 -71c97,10 164,21 207,30 42,9 73,46 76,89z"/>
    </g>
   </g>
   <g>
    <g>
     <path class="fil0" d="M2393 939l-1550 0c-25,0 -44,20 -44,44 0,25 19,44 44,44l1550 0c24,0 44,-19 44,-44 0,-24 -20,-44 -44,-44z"/>
    </g>
   </g>
   <g>
    <g>
     <path class="fil0" d="M655 939l-94 0c-25,0 -44,20 -44,44 0,25 19,44 44,44l94 0c24,0 44,-19 44,-44 0,-24 -20,-44 -44,-44z"/>
    </g>
   </g>
   <g>
   </g>
   <g>
   </g>
   <g>
   </g>
   <g>
   </g>
   <g>
   </g>
   <g>
   </g>
   <g>
   </g>
   <g>
   </g>
   <g>
   </g>
   <g>
   </g>
   <g>
   </g>
   <g>
   </g>
   <g>
   </g>
   <g>
   </g>
   <g>
   </g>
  </g>
 </g>
</svg>
