<?xml version="1.0" encoding="UTF-8"?>
<!DOCTYPE svg PUBLIC "-//W3C//DTD SVG 1.1//EN" "http://www.w3.org/Graphics/SVG/1.1/DTD/svg11.dtd">
<!-- Creator: CorelDRAW X7 -->
<svg xmlns="http://www.w3.org/2000/svg" xml:space="preserve" width="238px" height="157px" version="1.1" style="shape-rendering:geometricPrecision; text-rendering:geometricPrecision; image-rendering:optimizeQuality; fill-rule:evenodd; clip-rule:evenodd"
viewBox="0 0 52856 35013"
 xmlns:xlink="http://www.w3.org/1999/xlink">
 <defs>
  <style type="text/css">
   <![CDATA[
    .str0 {stroke:#4781C5;stroke-width:525.425;stroke-opacity:0.501961}
    .fil2 {fill:none}
    .fil1 {fill:#1C63B8}
    .fil0 {fill:white;fill-opacity:0.949020}
   ]]>
  </style>
 </defs>
 <g id="Слой_x0020_1">
  <metadata id="CorelCorpID_0Corel-Layer"/>
  <polygon class="fil0" points="0,0 52856,0 52856,35013 0,35013 "/>
  <g id="_1589731544176">
   <g>
    <g>
     <path class="fil1" d="M19646 22186c-219,0 -396,177 -396,396 0,483 -393,875 -875,875 -483,0 -875,-392 -875,-875 0,-482 392,-875 875,-875 219,0 396,-177 396,-396 0,-219 -177,-397 -396,-397 -920,0 -1668,748 -1668,1668 0,920 748,1668 1668,1668 920,0 1668,-748 1668,-1668 0,-219 -178,-396 -397,-396z"/>
    </g>
   </g>
   <g>
    <g>
     <path class="fil1" d="M35753 22186c-219,0 -397,177 -397,396 0,483 -392,875 -875,875 -482,0 -875,-392 -875,-875 0,-482 393,-875 875,-875 219,0 397,-177 397,-396 0,-219 -178,-397 -397,-397 -920,0 -1668,748 -1668,1668 0,920 748,1668 1668,1668 920,0 1668,-748 1668,-1668 0,-219 -177,-396 -396,-396z"/>
    </g>
   </g>
   <g>
    <g>
     <path class="fil1" d="M39964 15959c0,-557 -377,-1044 -917,-1184 -1013,-263 -3082,-570 -7261,-632l-2186 -2428c-257,-286 -566,-515 -906,-679 157,-208 250,-466 250,-746 0,-686 -558,-1244 -1244,-1244l-8054 0c-686,0 -1244,558 -1244,1244 0,273 88,525 238,731 -263,150 -494,358 -673,613l-1748 2498 -1614 0c-629,0 -1176,447 -1273,1039 -56,348 35,701 250,975 -418,303 -690,795 -690,1350l0 2243c0,861 516,1623 1315,1942l852 341c-31,182 -48,369 -48,560 0,1036 471,1963 1209,2581l-812 0c-219,0 -397,177 -397,396 0,219 178,397 397,397l5934 0c219,0 396,-178 396,-397 0,-219 -177,-396 -396,-396l-812 0c738,-618 1208,-1545 1208,-2581 0,-9 0,-18 0,-27l9381 0c0,9 -1,18 -1,27 0,1036 470,1963 1208,2581l-812 0c-219,0 -396,177 -396,396 0,219 177,397 396,397l5934 0c219,0 397,-178 397,-397 0,-219 -178,-396 -397,-396l-812 0c739,-618 1209,-1545 1209,-2581 0,-161 -12,-319 -34,-474l1179 -263c573,-127 974,-627 974,-1214l0 -2622c0,-423 -162,-818 -431,-1117 274,-233 431,-571 431,-933zm-10067 -2729l812 904c-152,-1 -308,-1 -466,-1l-4690 0 0 -903 4344 0zm-10251 -3391l8054 0c248,0 451,203 451,452 0,248 -203,451 -451,451l-285 0 -7734 0 -35 0c-248,0 -451,-203 -451,-451 0,-249 203,-452 451,-452zm-1029 2250c243,-347 641,-554 1064,-554l7734 0c607,0 1189,259 1595,710l173 192 -8219 0c-432,0 -826,219 -1055,585l-694 1111 -2028 0 1430 -2044zm6143 1141l0 903 -4610 0 431 -691c83,-132 226,-212 383,-212l3796 0zm-11075 4266c0,-482 392,-875 875,-875l1054 0 -327 653c-76,154 -231,249 -403,249l-1199 0 0 -27zm4690 7657c-1418,0 -2571,-1153 -2571,-2571 0,-1417 1153,-2570 2571,-2570 1417,0 2570,1153 2570,2570 0,1418 -1153,2571 -2570,2571zm16106 0c-1417,0 -2570,-1153 -2570,-2571 0,-1417 1153,-2570 2570,-2570 1418,0 2571,1153 2571,2570 0,1418 -1153,2571 -2571,2571zm4531 -8858c-59,47 -182,121 -353,85 -5,-1 -10,-2 -15,-3 -2,0 -3,-1 -5,-1 -1,0 -2,0 -3,-1 -908,-190 -2155,-333 -3707,-426 -219,-12 -407,154 -420,373 -13,218 154,406 373,419 265,16 514,33 749,51l683 1139c300,499 848,810 1430,810l1427 0 0 1890c0,213 -145,394 -353,440l-1212 269c-495,-1241 -1708,-2121 -3125,-2121 -1571,0 -2894,1084 -3262,2543l-9582 0c-368,-1459 -1691,-2543 -3262,-2543 -1385,0 -2576,841 -3092,2039l-782 -313c-496,-198 -816,-672 -816,-1206l0 -1422 1199 0c474,0 901,-264 1113,-688l503 -1008 13743 0c1053,0 2047,15 2954,44 221,7 402,-165 409,-383 7,-219 -165,-403 -384,-409 -915,-30 -1917,-45 -2979,-45l-15683 0c-133,0 -258,-58 -344,-159 -87,-103 -123,-234 -101,-371 34,-209 250,-372 490,-372l15638 0c5416,0 7716,386 8605,617 190,49 323,221 323,417 0,131 -58,253 -159,335zm156 1652l-1424 0c-305,0 -593,-163 -750,-425l-386 -643c881,91 1481,192 1869,273 382,81 664,410 691,795z"/>
    </g>
   </g>
   <g>
    <g>
     <path class="fil1" d="M34481 17523l-13987 0c-219,0 -397,178 -397,397 0,219 178,397 397,397l13987 0c219,0 397,-178 397,-397 0,-219 -178,-397 -397,-397z"/>
    </g>
   </g>
   <g>
    <g>
     <path class="fil1" d="M18799 17523l-848 0c-219,0 -397,178 -397,397 0,219 178,397 397,397l848 0c219,0 396,-178 396,-397 0,-219 -177,-397 -396,-397z"/>
    </g>
   </g>
   <g>
   </g>
   <g>
   </g>
   <g>
   </g>
   <g>
   </g>
   <g>
   </g>
   <g>
   </g>
   <g>
   </g>
   <g>
   </g>
   <g>
   </g>
   <g>
   </g>
   <g>
   </g>
   <g>
   </g>
   <g>
   </g>
   <g>
   </g>
   <g>
   </g>
  </g>
  <line class="fil2 str0" x1="12611" y1="2675" x2="39852" y2= "2675" />
  <line class="fil2 str0" x1="12611" y1="32328" x2="39852" y2= "32328" />
 </g>
</svg>
