<?xml version="1.0" encoding="UTF-8"?>
<!DOCTYPE svg PUBLIC "-//W3C//DTD SVG 1.1//EN" "http://www.w3.org/Graphics/SVG/1.1/DTD/svg11.dtd">
<!-- Creator: CorelDRAW X7 -->
<svg xmlns="http://www.w3.org/2000/svg" xml:space="preserve" width="80px" height="84px" version="1.1" style="shape-rendering:geometricPrecision; text-rendering:geometricPrecision; image-rendering:optimizeQuality; fill-rule:evenodd; clip-rule:evenodd"
viewBox="0 0 6113 6420"
 xmlns:xlink="http://www.w3.org/1999/xlink">
 <defs>
  <style type="text/css">
   <![CDATA[
    .fil0 {fill:#1C63B8}
   ]]>
  </style>
 </defs>
 <g id="Layer-39">
  <metadata id="CorelCorpID_0Corel-Layer"/>
  <g id="_1589679945376">
   <g>
    <path class="fil0" d="M5620 2956c-193,217 -382,450 -513,772 -60,148 -203,245 -363,245 -162,0 -304,-97 -365,-246 -153,-374 -384,-629 -609,-875 -56,-62 -112,-124 -167,-188 -3,1 -5,2 -8,3 -218,66 -386,355 -285,590 69,162 552,131 511,479 -35,284 337,359 469,345 132,-16 335,216 232,319 -101,102 -293,106 -264,370 8,76 241,67 241,183 0,117 -120,250 -28,384 20,30 40,52 62,70 -445,410 -1038,660 -1688,660 -1375,0 -2493,-1117 -2493,-2492 0,-417 104,-811 286,-1157 -1,448 238,820 350,932 366,365 896,250 964,556 69,305 -364,306 -335,539 29,234 593,296 467,512 -166,286 112,307 31,660 -43,193 236,230 339,83 79,-112 63,-249 221,-418 194,-206 644,-240 594,-581 -86,-567 -637,-656 -877,-788 -273,-150 -206,-509 -265,-680 -82,-243 -363,68 -512,-74 -246,-232 44,-561 251,-554 435,14 569,438 730,423 156,-14 257,-232 285,-348 58,-253 -98,-140 -161,-272 -85,-176 297,-344 444,-474 23,-20 40,-38 49,-56 44,-87 -14,-153 -113,-213 -196,-119 -556,-213 -572,-399 -10,-114 208,-169 457,-179 42,2 82,6 123,10 21,-117 54,-233 100,-343 -119,-16 -240,-23 -363,-23 -1569,0 -2845,1276 -2845,2844 0,1569 1276,2845 2845,2845 1568,0 2844,-1276 2844,-2845 0,-212 -23,-420 -69,-619zm-1010 -2950c-803,76 -1353,854 -1213,1649 142,807 886,1055 1255,1961 34,81 148,82 182,0 409,-1004 1279,-1200 1279,-2246 0,-800 -687,-1441 -1503,-1364zm133 2088c-399,0 -723,-324 -723,-724 0,-399 324,-723 723,-723 400,0 724,324 724,723 0,400 -324,724 -724,724z"/>
   </g>
   <g>
   </g>
   <g>
   </g>
   <g>
   </g>
   <g>
   </g>
   <g>
   </g>
   <g>
   </g>
   <g>
   </g>
   <g>
   </g>
   <g>
   </g>
   <g>
   </g>
   <g>
   </g>
   <g>
   </g>
   <g>
   </g>
   <g>
   </g>
   <g>
   </g>
  </g>
 </g>
</svg>
