<?xml version="1.0" encoding="UTF-8"?>
<!DOCTYPE svg PUBLIC "-//W3C//DTD SVG 1.1//EN" "http://www.w3.org/Graphics/SVG/1.1/DTD/svg11.dtd">
<!-- Creator: CorelDRAW X7 -->
<svg xmlns="http://www.w3.org/2000/svg" xml:space="preserve" width="78px" height="70px" version="1.1" style="shape-rendering:geometricPrecision; text-rendering:geometricPrecision; image-rendering:optimizeQuality; fill-rule:evenodd; clip-rule:evenodd"
viewBox="0 0 5745 5196"
 xmlns:xlink="http://www.w3.org/1999/xlink">
 <defs>
  <style type="text/css">
   <![CDATA[
    .fil0 {fill:#1C63B8}
   ]]>
  </style>
 </defs>
 <g id="Layer-20">
  <metadata id="CorelCorpID_0Corel-Layer"/>
  <g id="_1590232080736">
   <g>
    <g>
     <path class="fil0" d="M5745 711c0,-1 0,-1 0,-2 -1,-3 -1,-5 -1,-7 0,-1 0,-2 0,-3 -1,-2 -1,-5 -2,-7 0,-1 0,-2 0,-2 -1,-3 -2,-5 -3,-7 0,-1 0,-1 0,-2l-228 -584c-23,-59 -79,-97 -142,-97l-416 0c-45,0 -82,37 -82,82 0,45 37,82 82,82l408 0 182 465 -1718 0 -108 -465 635 0c45,0 82,-37 82,-82 0,-45 -37,-82 -82,-82l-738 0 -826 0 -1755 0c-63,0 -119,38 -142,97l-228 584c0,1 0,1 -1,2 0,2 -1,4 -2,7 0,0 0,1 0,2 -1,2 -1,5 -2,7 0,1 0,2 0,3 0,2 -1,4 -1,7 0,1 0,1 0,2 0,0 0,0 0,0l0 1205c0,46 37,82 82,82 46,0 82,-36 82,-82l0 -1123 1739 0 0 1247c0,49 29,93 73,113 17,8 34,11 51,11 30,0 59,-11 83,-31l434 -385 434 385c37,32 89,40 134,20 44,-20 73,-64 73,-113l0 -1247 1739 0 0 3679c0,59 -48,107 -107,107l-1504 0c0,-1 0,-2 0,-3 0,-7 -1,-14 -1,-22 141,38 292,-35 348,-174 30,-73 30,-153 -1,-225 -3,-7 -6,-14 -9,-20 -1,-2 -2,-3 -2,-4 -3,-6 -7,-12 -11,-18 0,-2 -1,-3 -2,-4 -4,-6 -8,-12 -12,-18 0,0 0,0 0,0 -5,-6 -9,-11 -14,-16 -1,-1 -1,-2 -2,-3 -5,-6 -10,-11 -15,-15 -1,-1 -2,-2 -3,-3 -5,-5 -10,-10 -16,-14 0,0 0,-1 0,-1 -6,-4 -12,-8 -17,-12 -1,-1 -2,-2 -3,-2 -6,-4 -12,-8 -18,-12 -1,0 -1,0 -2,-1 35,-30 62,-67 80,-111 30,-73 29,-153 -1,-226 -27,-64 -74,-115 -134,-147 -9,-4 -18,-8 -27,-12l-1277 -521 595 -183c141,-44 221,-195 177,-337 -16,-52 -48,-97 -90,-130 -62,-48 -144,-70 -226,-53 -1,0 -1,0 -2,1 -4,1 -460,103 -935,196 -22,4 -42,8 -62,12 -17,3 -33,6 -48,9 -5,1 -9,2 -14,3 -27,5 -54,10 -80,15 -11,2 -21,4 -32,5 -597,111 -765,113 -812,106 0,0 0,0 0,0 -1,0 -1,0 -2,0 -1,0 -1,0 -1,0 -1,0 -1,-1 -1,-1 -3,0 -6,-1 -7,-1l-14 -6 17 -41c16,-40 16,-84 -1,-125 -4,-10 -9,-19 -15,-28 -18,-27 -43,-47 -74,-60l-440 -179c-41,-17 -85,-16 -125,0 -40,17 -72,49 -88,89l-539 1322c-34,83 6,178 90,212l440 180c20,8 41,12 62,12 64,0 125,-38 151,-101l4 -10 102 41c0,0 0,0 0,0 97,40 187,96 264,166 14,13 28,26 41,40 13,14 26,28 39,42 6,7 12,15 18,22 113,141 261,251 428,320l114 46 -837 0c-59,0 -107,-48 -107,-107l0 -207c0,-45 -36,-82 -82,-82 -45,0 -82,37 -82,82l0 207c0,150 122,271 271,271l1240 0 1056 431c37,15 74,22 111,22 117,0 227,-70 274,-184 19,-47 25,-96 20,-143 55,8 112,1 164,-21 52,-23 96,-59 127,-105l1554 0c149,0 271,-121 271,-271l0 -3761c0,0 0,0 0,0zm-2892 -547l696 0 108 465 -912 0 108 -465zm-276 465l-1718 0 182 -465 1644 0 -108 465zm1101 1322l0 0 -395 -349c-23,-21 -53,-31 -82,-31 -29,0 -59,10 -82,31l-395 349 0 -1158 954 0 0 1158zm-3074 1898l-440 -179 539 -1320 439 179 -538 1320zm3277 495l-94 -39c0,0 -1,0 -1,0 0,0 0,0 0,0 0,0 0,0 0,0l-980 -399c-42,-17 -90,3 -107,45 -17,42 3,89 45,107l980 399c4,2 8,4 12,6 1,0 2,1 3,2 3,1 6,3 8,4 2,1 3,2 4,3 2,2 4,3 7,5 1,1 2,2 3,3 2,2 4,4 6,6 1,1 2,2 3,3 2,2 4,4 5,6 2,1 3,3 4,4 1,2 3,4 4,6 1,1 2,3 3,5 1,2 2,3 3,5 1,2 2,4 3,6 1,2 2,4 3,5 1,2 1,4 2,6 1,2 2,4 2,6 1,2 1,4 2,6 0,2 1,4 2,6 0,2 0,4 1,6 0,2 0,4 1,6 0,2 0,4 0,7 0,2 1,4 1,6 0,2 0,4 0,6 0,2 0,4 0,6 -1,2 -1,4 -1,7 0,2 -1,4 -1,6 0,2 -1,4 -1,6 -1,2 -1,4 -2,7 0,2 -1,3 -1,5 -1,3 -2,5 -3,7 0,2 -1,3 -2,4 0,1 0,1 0,2 -13,29 -36,53 -67,66 -34,15 -73,15 -107,1l-174 -71c-1,0 -1,0 -2,0 -1,-1 -2,-1 -3,-2l-797 -325c-42,-17 -90,3 -107,45 -17,42 3,90 45,107l797 325c1,1 2,1 3,1 1,1 1,1 2,1 67,28 99,104 72,171 -27,67 -104,100 -171,72l-1071 -437c0,0 0,0 0,0l-502 -204c-88,-36 -170,-86 -243,-148 -43,-37 -83,-78 -119,-122 -35,-44 -74,-86 -116,-123 -91,-83 -197,-150 -312,-197 0,0 0,0 0,0l-102 -41 203 -497 191 -470 14 6c14,5 33,13 84,15 63,3 169,-4 358,-30 128,-19 286,-45 470,-79 5,-1 9,-1 14,-2 8,-2 17,-3 26,-5 6,-1 13,-2 20,-4 8,-1 16,-3 24,-4 8,-2 17,-3 25,-5 7,-1 14,-3 21,-4 10,-2 21,-4 31,-6 6,-1 11,-2 17,-3 16,-3 33,-6 50,-10 474,-92 931,-195 952,-199 2,-1 4,-1 6,-1 53,-8 104,23 119,72 6,17 6,35 3,51 -7,37 -34,68 -72,80l-813 252c-33,10 -56,40 -58,74 -1,35 19,67 51,80l1489 607c33,13 58,38 72,71 13,32 13,67 0,100 -13,32 -38,58 -70,71 -17,7 -34,10 -51,11 0,0 0,-1 0,-1 -4,0 -8,0 -12,0 -1,0 -3,0 -4,-1 -3,0 -6,0 -9,-1 -2,0 -4,-1 -6,-1 -2,-1 -4,-1 -6,-2 -3,-1 -5,-2 -7,-2 -2,-1 -4,-2 -6,-2l-980 -400c-42,-17 -90,3 -107,45 -17,42 3,90 45,107l1189 485c8,3 15,7 23,12 21,14 38,34 48,58 12,28 13,59 5,88 -1,4 -3,8 -5,12 -1,5 -3,9 -5,13 -5,9 -11,17 -17,24 -5,5 -9,9 -14,13 0,1 -1,2 -2,2 -30,25 -70,35 -109,27 -8,-1 -16,-3 -23,-7l-114 -46z"/>
    </g>
   </g>
   <g>
   </g>
   <g>
   </g>
   <g>
   </g>
   <g>
   </g>
   <g>
   </g>
   <g>
   </g>
   <g>
   </g>
   <g>
   </g>
   <g>
   </g>
   <g>
   </g>
   <g>
   </g>
   <g>
   </g>
   <g>
   </g>
   <g>
   </g>
   <g>
   </g>
  </g>
 </g>
</svg>
