<?xml version="1.0" encoding="UTF-8"?>
<!DOCTYPE svg PUBLIC "-//W3C//DTD SVG 1.1//EN" "http://www.w3.org/Graphics/SVG/1.1/DTD/svg11.dtd">
<!-- Creator: CorelDRAW X7 -->
<svg xmlns="http://www.w3.org/2000/svg" xml:space="preserve" width="22px" height="21px" version="1.1" style="shape-rendering:geometricPrecision; text-rendering:geometricPrecision; image-rendering:optimizeQuality; fill-rule:evenodd; clip-rule:evenodd"
viewBox="0 0 619 593"
 xmlns:xlink="http://www.w3.org/1999/xlink">
 <defs>
  <style type="text/css">
   <![CDATA[
    .str0 {stroke:#FDC100;stroke-width:56.4537}
    .fil0 {fill:none}
    .fil1 {fill:#FDC100}
   ]]>
  </style>
 </defs>
 <g id="Layer-32">
  <metadata id="CorelCorpID_0Corel-Layer"/>
  <g id="_1590129312496">
   <g>
    <path class="fil0 str0" d="M290 40c3,-7 11,-12 19,-12 9,0 16,5 20,12l70 142c3,7 9,11 16,12l157 23c8,1 15,7 17,15 3,7 1,16 -5,22l-113 110c-6,5 -8,13 -7,20l27 155c1,9 -2,17 -9,22 -6,5 -15,5 -23,1l-140 -73c-6,-4 -14,-4 -20,0l-140 73c-7,4 -16,4 -23,-1 -6,-5 -10,-13 -8,-22l26 -155c2,-7 -1,-15 -6,-20l-113 -110c-6,-6 -8,-15 -6,-22 3,-8 10,-14 18,-15l156 -23c7,-1 14,-5 17,-12l70 -142z"/>
   </g>
   <g>
   </g>
   <g>
   </g>
   <g>
   </g>
   <g>
   </g>
   <g>
   </g>
   <g>
   </g>
   <g>
   </g>
   <g>
   </g>
   <g>
   </g>
   <g>
   </g>
   <g>
   </g>
   <g>
   </g>
   <g>
   </g>
   <g>
   </g>
   <g>
   </g>
  </g>
 </g>
 <g id="Layer-34">
  <metadata id="CorelCorpID_1Corel-Layer"/>
  <path class="fil1" d="M290 40c3,-7 10,-11 17,-12l0 458c-2,1 -5,1 -8,3l-140 73c-7,4 -16,4 -23,-1 -6,-5 -10,-13 -8,-22l26 -155c2,-7 -1,-15 -6,-20l-113 -110c-6,-6 -8,-15 -6,-22 3,-8 10,-14 18,-15l156 -23c7,-1 14,-5 17,-12l70 -142z"/>
 </g>
</svg>
